{
  "window.menuBarVisibility": "toggle",
  "workbench.colorTheme": "Solarized Dark",
  "editor.fontFamily": "'Fira Code' ",

  "vim.easymotion": true,
  "vim.enableNeovim": true,
  "vim.neovimPath": "/usr/bin/nvim",
  "vim.vimrc.enable": true,
  "vim.vimrc.path": "/home/bruno/Dotfiles/vimrc",
  "vim.incsearch": true,
  "vim.useSystemClipboard": true,
  "vim.useCtrlKeys": true,
  "vim.hlsearch": true,
  "vim.insertModeKeyBindings": [
    {
      "before": ["j", "k"],
      "after": ["<Esc>"]
    }
  ],
    "vim.leader": "<space>",
    "vscode-neovim.neovimPath": "/usr/bin/nvim",
    "vscode-neovim.neovimInitPath": "/home/bruno/Dotfiles/vimrc",
    "window.zoomLevel": -1,
    "workbench.activityBar.visible": true,
    "workbench.statusBar.visible": true,
    "workbench.sideBar.location": "left",
    "editor.minimap.enabled": false
}
